…
# Find the most common snowfall values
nydat %>%
  count(snow) %>%
  arrange(desc(n))
```

    ## # A tibble: 280 × 2
    ##     snow       n
    ##    <dbl>   <int>
    ##  1     0 2015965
    ##  2    NA  362133
    ##  3    25   31026
    ##  4    13   23060
    ##  5    51   18272
    ##  6    76   10174
    ##  7     8   10016
    ##  8     5    9801
    ##  9    38    9204
    ## 10     3    8838
    ## # ℹ 270 more rows
…
